The STOC free model
…
- The package contains a toy dataset called `herdBTM` that we will use for demonstrating how to use the model

--

- Mimics what is done in some BVD surveillance programmes in French dairy herds:

 - BVDV specific antibodies are sought in a bulk tank milk sample
 - All herds in the programme are tested twice a year

--

```
## # A tibble: 588 x 6
##    Farm  DateOfTest    ODR Test    TestResult LocalSeroPrev
##    <chr> <date>      <dbl> <chr>        <dbl>         <dbl>
##  1 FR001 2014-02-04  57.6  BTM_ODR          1          0.12
##  2 FR001 2014-09-10  66.5  BTM_ODR          1          0.1 
##  3 FR001 2015-02-01  52.5  BTM_ODR          1          0.08
##  4 FR001 2015-09-03  46.7  BTM_ODR          1          0.1 
##  5 FR001 2016-02-18  38.3  BTM_ODR          1          0.22
##  6 FR001 2016-09-01   7.48 BTM_ODR          0          0.14
##  7 FR002 2014-02-06 -16.3  BTM_ODR          0          0.14
##  8 FR002 2014-09-02   8.00 BTM_ODR          0          0.1 
##  9 FR002 2015-02-01   8.80 BTM_ODR          0          0.08
## 10 FR002 2015-09-03 -33.6  BTM_ODR          0          0.1 
## # ... with 578 more rows
```
…
---
## BVDV surveillance dataset

- Let's discard the data we will not need

```r
hbm <- herdBTM %>% 
  filter(Test == "BTM_ODR") %>% 
  select(Farm, DateOfTest, TestResult)

hbm
```

```
## # A tibble: 588 x 3
##    Farm  DateOfTest TestResult
##    <chr> <date>          <dbl>
##  1 FR001 2014-02-04          1
##  2 FR001 2014-09-10          1
##  3 FR001 2015-02-01          1
##  4 FR001 2015-09-03          1
##  5 FR001 2016-02-18          1
##  6 FR001 2016-09-01          0
##  7 FR002 2014-02-06          0
##  8 FR002 2014-09-02          0
##  9 FR002 2015-02-01          0
## 10 FR002 2015-09-03          0
## # ... with 578 more rows
```
…
